Lesson 3 - Importing data & tidy data | Intro into R, Reproducible research and machine learning
…
heights_3 <- read_tsv("data/lesson3/heights3.txt")

## Rows: 1192 Columns: 6
## ── Column specification ──────────────────────────────────────────────────────────────────────────────────
## Delimiter: "\t"
## chr (2): sex, race
## dbl (3): earn, ed, age
## 
## ℹ Use `spec()` to retrieve the full column specification for this data.
## ℹ Specify the column types or set `show_col_types = FALSE` to quiet this message.

heights_3

## # A tibble: 1,192 × 6
##     earn  height sex       ed   age race    
##    <dbl>   <dbl> <chr>  <dbl> <dbl> <chr>   
##  1 50000 7.44e14 male      16    45 white   
##  2 60000 6.55e14 female    16    58 white   
##  3 30000 6.36e14 female    16    29 white   
##  4 50000 6.31e14 female    16    91 other   
##  5 51000 6.34e14 female    17    39 white   
##  6  9000 6.44e14 female    15    26 white   
##  7 29000 6.17e14 female    12    49 white   
##  8 32000 7.27e14 male      17    46 white   
##  9  2000 7.20e14 male      15    21 hispanic
## 10 27000 7.22e14 male      12    26 white   
## # … with 1,182 more rows
…
heights_3 <- read_tsv("data/lesson3/heights3.txt", 
                      locale = locale(decimal_mark = ","))

## Rows: 1192 Columns: 6
## ── Column specification ──────────────────────────────────────────────────────────────────────────────────
## Delimiter: "\t"
## chr (2): sex, race
## dbl (4): earn, height, ed, age
## 
## ℹ Use `spec()` to retrieve the full column specification for this data.
## ℹ Specify the column types or set `show_col_types = FALSE` to quiet this message.

heights_3

## # A tibble: 1,192 × 6
##     earn height sex       ed   age race    
##    <dbl>  <dbl> <chr>  <dbl> <dbl> <chr>   
##  1 50000   74.4 male      16    45 white   
##  2 60000   65.5 female    16    58 white   
##  3 30000   63.6 female    16    29 white   
##  4 50000   63.1 female    16    91 other   
##  5 51000   63.4 female    17    39 white   
##  6  9000   64.4 female    15    26 white   
##  7 29000   61.7 female    12    49 white   
##  8 32000   72.7 male      17    46 white   
##  9  2000   72.0 male      15    21 hispanic
## 10 27000   72.2 male      12    26 white   
## # … with 1,182 more rows
…
heights4 <- read_delim("data/lesson3/heights4.txt", delim="@", locale = locale(decimal_mark = ","))

## Rows: 1192 Columns: 6
## ── Column specification ──────────────────────────────────────────────────────────────────────────────────
## Delimiter: "@"
## chr (2): sex, race
## dbl (4): earn, height, ed, age
## 
## ℹ Use `spec()` to retrieve the full column specification for this data.
## ℹ Specify the column types or set `show_col_types = FALSE` to quiet this message.

heights4

## # A tibble: 1,192 × 6
##     earn height sex       ed   age race    
##    <dbl>  <dbl> <chr>  <dbl> <dbl> <chr>   
##  1 50000   74.4 male      16    45 white   
##  2 60000   65.5 female    16    58 white   
##  3 30000   63.6 female    16    29 white   
##  4 50000   63.1 female    16    91 other   
##  5 51000   63.4 female    17    39 white   
##  6  9000   64.4 female    15    26 white   
##  7 29000   61.7 female    12    49 white   
##  8 32000   72.7 male      17    46 white   
##  9  2000   72.0 male      15    21 hispanic
## 10 27000   72.2 male      12    26 white   
## # … with 1,182 more rows
…
(2) if variable names are present but not at the first line use te options skip=N or comment = “#”

Download dataset heights2.txt and move the file to the server folder data/lesson3. This file contains variable names but not at the first row. Note that the values are separated by tabs!

First we have to inspect the datafile: click on the file.

The first two lines are comments starting with the # sign. The variable names are present at row3. To read in the file we will use read_tsv()

Example

heights_2<-read_tsv("data/lesson3/heights2.txt", skip = 2) # first two rows are not imported in object heights_2

heights_2

## # A tibble: 1,192 × 6
##     earn height sex       ed   age race    
##    <dbl>  <dbl> <chr>  <dbl> <dbl> <chr>   
##  1 50000   74.4 male      16    45 white   
##  2 60000   65.5 female    16    58 white   
##  3 30000   63.6 female    16    29 white   
##  4 50000   63.1 female    16    91 other   
##  5 51000   63.4 female    17    39 white   
##  6  9000   64.4 female    15    26 white   
##  7 29000   61.7 female    12    49 white   
##  8 32000   72.7 male      17    46 white   
##  9  2000   72.0 male      15    21 hispanic
## 10 27000   72.2 male      12    26 white   
## # … with 1,182 more rows

Alternatively we can use the comment = “#” option

Example

heights_2<-read_tsv("data/lesson3/heights2.txt", comment = "#")      ## lines starting with a # sign are ignored for read in

heights_2

## # A tibble: 1,192 × 6
##     earn height sex       ed   age race    
##    <dbl>  <dbl> <chr>  <dbl> <dbl> <chr>   
##  1 50000   74.4 male      16    45 white   
##  2 60000   65.5 female    16    58 white   
##  3 30000   63.6 female    16    29 white   
##  4 50000   63.1 female    16    91 other   
##  5 51000   63.4 female    17    39 white   
##  6  9000   64.4 female    15    26 white   
##  7 29000   61.7 female    12    49 white   
##  8 32000   72.7 male      17    46 white   
##  9  2000   72.0 male      15    21 hispanic
## 10 27000   72.2 male      12    26 white   
## # … with 1,182 more rows
…
If you want to rename the column names you can use the rename() or the colnames() functions (see Setting variable (column) names)

Exercise 3

Import sheet “quakes_1” from datafile datasets.xlsx in server folder data/lesson3 into R. Column names are not listed in datasets.xlsx. Import the datafile and add columns names “lat” “long” “depth” “mag” “stations” to the imported data.

Click for the answer

library(readxl)
read_excel("data/lesson3/datasets.xlsx",
    sheet = "quakes_1",
    col_names = c("lat", "long", "depth", "mag", "stations"))

## # A tibble: 1,000 × 5
##      lat  long depth   mag stations
##    <dbl> <dbl> <dbl> <dbl>    <dbl>
##  1 -20.4  182.   562   4.8       41
##  2 -20.6  181.   650   4.2       15
##  3 -26    184.    42   5.4       43
##  4 -18.0  182.   626   4.1       19
##  5 -20.4  182.   649   4         11
##  6 -19.7  184.   195   4         12
##  7 -11.7  166.    82   4.8       43
##  8 -28.1  182.   194   4.4       15
##  9 -28.7  182.   211   4.7       35
## 10 -17.5  180.   622   4.3       19
## # … with 990 more rows
…
Let’s inspect another dataset from the dslabs package: gapminder

Example

?gapminder                                       # information about the "gapminder" dataset

gapminder_tbl <- as_tibble(gapminder)            # converting dataframe to tibble
gapminder_tbl

## # A tibble: 10,545 × 9
##    country            year infant_mortality life_expectancy fertility population      gdp continent region
##    <fct>             <int>            <dbl>           <dbl>     <dbl>      <dbl>    <dbl> <fct>     <fct> 
##  1 Albania            1960            115.             62.9      6.19    1636054 NA       Europe    South…
##  2 Algeria            1960            148.             47.5      7.65   11124892  1.38e10 Africa    North…
##  3 Angola             1960            208              36.0      7.32    5270844 NA       Africa    Middl…
##  4 Antigua and Barb…  1960             NA              63.0      4.43      54681 NA       Americas  Carib…
##  5 Argentina          1960             59.9            65.4      3.11   20619075  1.08e11 Americas  South…
##  6 Armenia            1960             NA              66.9      4.55    1867396 NA       Asia      Weste…
##  7 Aruba              1960             NA              65.7      4.82      54208 NA       Americas  Carib…
##  8 Australia          1960             20.3            70.9      3.45   10292328  9.67e10 Oceania   Austr…
##  9 Austria            1960             37.3            68.8      2.7     7065525  5.24e10 Europe    Weste…
## 10 Azerbaijan         1960             NA              61.3      5.57    3897889 NA       Asia      Weste…
## # … with 10,535 more rows
…
The function shapiro.test() takes a numeric vector as input and performs the shapiro-wilk test.

The output of shapiro.test() is a list with fixed column names:

[1] “statistic” “p.value” “method” “data.name”

Let’s demonstrate the shapiro-wilk test with a dataset named smoking present in server folder “data/lesson3”. The smoking dataset is an unpaired experiment containing two different mice groups: control mice (“Controle”) and a group of mice continuously exposed to cigarette smoke (“Rook”). The measurement values represent minutes of swimming until exhaustion.

Example

library(tidyverse)
smoking <- read_tsv("data/lesson3/smoking")
smoking #remember there are more rows, you only get shown the first few

## # A tibble: 21 × 2
##    Controle  Rook
##       <dbl> <dbl>
##  1      181   158
##  2      193   166
##  3      177   184
##  4      183   164
##  5      174   194
##  6      169   163
##  7      173   185
##  8      197   165
##  9      179   189
## 10      197   170
## # … with 11 more rows
…
